…
Aside from being neat, something interesting is added - a new column “data”, which is a list class class. Looking at Newfoundland and Labrador’s dataframe can be done through the same operators as with lists: with [, [[, or $, which shows the ungrouped data, in this case of the province:

nested_census$data[[5]]

## # A tibble: 47 x 7
##    CMANAME POP_PERC_CHANGE POP_DENSITY_KM2 PERC_POP_OVER_15 MEDIAN_AGE
##    <chr>             <dbl>           <dbl>            <dbl>      <dbl>
##  1 St. Jo…            98              22.9             74.5       34.7
##  2 St. Jo…           232.             81.8             82.9       30.7
##  3 St. Jo…             3             204.              84.3       40.3
##  4 St. Jo…            11.1            40.3             81.5       39  
##  5 St. Jo…            18.8           174               78.5       37  
##  6 St. Jo…            -7.5          1268               86.8       42.3
##  7 St. Jo…             6.4           885.              81.7       40.5
##  8 St. Jo…            13.1           299.              82.2       39.2
##  9 St. Jo…            -1.7          2537               86.8       42.5
## 10 St. Jo…             0.3          2997.              87.5       42.3
## # … with 37 more rows, and 2 more variables: YEAR <dbl>, Population <dbl>
…
